An Exploration of Trade Volume and Exchange Rates
…
Today, we are going to make a general analysis of some economic data for a group of countries with a more specific goal of finding a connection between trade volume and exchange rates.

We have data of the exchange rates for the currencies of selected countries in US dollars, export and import data of the US with other countries, GDP data from World Bank and export and import numbers for all countries.

Tidying the Data

We start by tidying our data. First, we will tidy the GDP data.

knitr::opts_chunk$set(echo = TRUE)
library(readr)
library(tidyverse)
library(readxl)
GDP <- read_csv("GDP.csv", skip = 4)
GDP
# A tibble: 264 x 62
         `Country Name` `Country Code`        `Indicator Name`
                  <chr>          <chr>                   <chr>
 1                Aruba            ABW GDP (constant 2010 US$)
 2          Afghanistan            AFG GDP (constant 2010 US$)
 3               Angola            AGO GDP (constant 2010 US$)
 4              Albania            ALB GDP (constant 2010 US$)
 5              Andorra            AND GDP (constant 2010 US$)
 6           Arab World            ARB GDP (constant 2010 US$)
 7 United Arab Emirates            ARE GDP (constant 2010 US$)
 8            Argentina            ARG GDP (constant 2010 US$)
 9              Armenia            ARM GDP (constant 2010 US$)
10       American Samoa            ASM GDP (constant 2010 US$)
# ... with 254 more rows, and 59 more variables: `Indicator Code` <chr>,
#   `1960` <dbl>, `1961` <dbl>, `1962` <dbl>, `1963` <dbl>, `1964` <dbl>,
#   `1965` <dbl>, `1966` <dbl>, `1967` <dbl>, `1968` <dbl>, `1969` <dbl>,
#   `1970` <dbl>, `1971` <dbl>, `1972` <dbl>, `1973` <dbl>, `1974` <dbl>,
#   `1975` <dbl>, `1976` <dbl>, `1977` <dbl>, `1978` <dbl>, `1979` <dbl>,
#   `1980` <dbl>, `1981` <dbl>, `1982` <dbl>, `1983` <dbl>, `1984` <dbl>,
#   `1985` <dbl>, `1986` <dbl>, `1987` <dbl>, `1988` <dbl>, `1989` <dbl>,
#   `1990` <dbl>, `1991` <dbl>, `1992` <dbl>, `1993` <dbl>, `1994` <dbl>,
#   `1995` <dbl>, `1996` <dbl>, `1997` <dbl>, `1998` <dbl>, `1999` <dbl>,
…
countries <- c("AUS", "CAN", "CHN", "GBR", "JPN")
GDP_final <- GDPtidy %>%
  filter(`Country Code` %in% countries) %>%
  filter(year > 1992, year<2016)

We now tidy the exchange rate data

USDrates <- read_csv("USDrates.csv")
USDrates
# A tibble: 26 x 8
    Year      ZWD     AUD     CAD     CNY     EUR     GBP       JPY
   <int>    <dbl>   <dbl>   <dbl>   <dbl>   <dbl>   <dbl>     <dbl>
 1  1990       NA      NA 1.16650      NA      NA 0.56310 144.74564
 2  1991       NA      NA 1.14573      NA      NA 0.56720 134.51049
 3  1992       NA      NA 1.20778      NA      NA 0.56923 126.60639
 4  1993  6.69030 1.49401 1.28941 5.79349      NA 0.66585 111.13545
 5  1994  8.13750 1.36787 1.36548 8.55784      NA 0.65336 102.20456
 6  1995  8.65618 1.34904 1.37202 8.35086      NA 0.63344  93.99318
 7  1996  9.98757 1.27753 1.36316 8.31421      NA 0.64085 108.71695
 8  1997 12.00415 1.34715 1.38416 8.28983      NA 0.61021 120.93012
 9  1998 23.45938 1.59091 1.48268 8.27892 0.85336 0.60339 130.85233
10  1999 38.23269 1.54951 1.48514 8.27608 0.93836 0.61821 113.77489
# ... with 16 more rows
USDrates_final<- USDrates %>%
  gather ("ZWD", "AUD", "CAD", "CNY", "EUR", "GBP", "JPY", key = "Currency Pair", value = "Exchange Rate") %>%
filter(`Currency Pair` != "ZWD") %>%
  filter(`Currency Pair` != "EUR") %>%
  filter(Year>1992)%>%
  arrange(Year)

Tidy the export and import data of all countries. Choose the countries and the time period, then filter out the percentage of GDP measure denoted by PC_GDP from the measure column.

NX <- read_csv("ExportImport.csv")
NX
# A tibble: 12,392 x 8
   LOCATION     INDICATOR SUBJECT MEASURE FREQUENCY  TIME    Value
      <chr>         <chr>   <chr>   <chr>     <chr> <int>    <dbl>
 1      AUS TRADEGOODSERV     EXP  PC_GDP         A  1970 12.64872
 2      AUS TRADEGOODSERV     EXP  PC_GDP         A  1971 12.81366
 3      AUS TRADEGOODSERV     EXP  PC_GDP         A  1972 14.14166
 4      AUS TRADEGOODSERV     EXP  PC_GDP         A  1973 13.13761
 5      AUS TRADEGOODSERV     EXP  PC_GDP         A  1974 14.26986
 6      AUS TRADEGOODSERV     EXP  PC_GDP         A  1975 13.51290
 7      AUS TRADEGOODSERV     EXP  PC_GDP         A  1976 14.01123
 8      AUS TRADEGOODSERV     EXP  PC_GDP         A  1977 13.61766
 9      AUS TRADEGOODSERV     EXP  PC_GDP         A  1978 14.29980
10      AUS TRADEGOODSERV     EXP  PC_GDP         A  1979 16.42309
# ... with 12,382 more rows, and 1 more variables: `Flag Codes` <chr>
NX_final <- NX %>%
  filter(LOCATION %in% countries) %>%
  select(LOCATION, SUBJECT, MEASURE, TIME, Value) %>%
  filter(TIME > 1992, TIME<2016) %>%
  filter(MEASURE== "PC_GDP")%>%
  spread(SUBJECT, Value)%>%
  arrange(TIME)

Tidy the trade data of the US with other countries. Filter countries and year. Select the relevant columns for the analysis.

UStrade <- read_excel("UStrade.xlsx")
UStrade
# A tibble: 5,584 x 39
    X__1 `Reporter Name`       `Partner Name`  Year      `Trade Flow`
   <chr>           <chr>                <chr> <dbl>             <chr>
 1     1   United States                Aruba  1991 Exports & Imports
 2     2   United States          Afghanistan  1991 Exports & Imports
 3     3   United States               Angola  1991 Exports & Imports
 4     4   United States              Anguila  1991 Exports & Imports
 5     5   United States              Albania  1991 Exports & Imports
 6     6   United States              Andorra  1991 Exports & Imports
 7     7   United States Netherlands Antilles  1991 Exports & Imports
 8     8   United States United Arab Emirates  1991 Exports & Imports
 9     9   United States            Argentina  1991 Exports & Imports
10    10   United States      Fr. So. Ant. Tr  1991 Exports & Imports
# ... with 5,574 more rows, and 34 more variables: `No Of exported HS6
#   digit Products` <dbl>, `No Of imported HS6 digit Products` <dbl>,
#   `Export Share in Total Products (%)` <dbl>, `Import Share in Total
#   Products (%)` <dbl>, `Trade Balance (US$ Thousand)` <dbl>, `Export
#   (US$ Thousand)` <dbl>, `Import (US$ Thousand)` <dbl>, `Import Partner
#   Share (%)` <dbl>, `Export Partner Share (%)` <dbl>, `AHS Simple
#   Average (%)` <dbl>, `AHS Weighted Average (%)` <dbl>, `AHS Total
#   Tariff Lines` <dbl>, `AHS Dutiable Tariff Lines Share (%)` <dbl>, `AHS
#   Duty Free Tariff Lines Share (%)` <dbl>, `AHS Specific Tariff Lines
…
